<svg xmlns="http://www.w3.org/2000/svg" xmlns:xlink="http://www.w3.org/1999/xlink" x="0px" y="0px" width="48px" height="48px" viewBox="0 0 48 48"><g  transform="translate(0, 0)">
<line data-color="color-2" fill="none" stroke="#8f9bfe" stroke-width="3" stroke-linecap="square" stroke-miterlimit="10" x1="4" y1="41" x2="44" y2="41" stroke-linejoin="miter"/>
<line data-color="color-2" fill="none" stroke="#8f9bfe" stroke-width="3" stroke-linecap="square" stroke-miterlimit="10" x1="24" y1="7" x2="20" y2="7" stroke-linejoin="miter"/>
<line data-color="color-2" fill="none" stroke="#8f9bfe" stroke-width="3" stroke-linecap="square" stroke-miterlimit="10" x1="24" y1="13" x2="20" y2="13" stroke-linejoin="miter"/>
<line data-color="color-2" fill="none" stroke="#8f9bfe" stroke-width="3" stroke-linecap="square" stroke-miterlimit="10" x1="24" y1="19" x2="20" y2="19" stroke-linejoin="miter"/>
<line data-color="color-2" fill="none" stroke="#8f9bfe" stroke-width="3" stroke-linecap="square" stroke-miterlimit="10" x1="24" y1="25" x2="20" y2="25" stroke-linejoin="miter"/>
<path fill="none" stroke="#8f9bfe" stroke-width="3" stroke-linecap="square" stroke-miterlimit="10" d="M24,46H8c-2.2,0-4-1.8-4-4&#10;&#9;V2h20v28h12c4.4,0,8,3.6,8,8v4c0,2.2-1.8,4-4,4H24z" stroke-linejoin="miter"/>
</g></svg>
