<svg xmlns="http://www.w3.org/2000/svg" xmlns:xlink="http://www.w3.org/1999/xlink" x="0px" y="0px" width="48px" height="48px" viewBox="0 0 48 48"><g  transform="translate(0.5, 0.5)"><path data-color="color-2" fill="none" stroke="#e67975" stroke-width="3" stroke-linecap="round" stroke-miterlimit="10" d="M46,30
	c0,4.4-3.6,8-8,8c-3,0-5.6-1.7-7-4.2c-1.4,2.5-4,4.2-7,4.2s-5.6-1.7-7-4.2c-1.4,2.5-4,4.2-7,4.2c-4.4,0-8-3.6-8-8" stroke-linejoin="round"/>
<path data-color="color-2" fill="none" stroke="#e67975" stroke-width="3" stroke-linecap="round" stroke-miterlimit="10" d="M24,16
	c2.2,0,4-1.8,4-4s-4-8-4-8s-4,5.8-4,8S21.8,16,24,16z" stroke-linejoin="round"/>
<line data-color="color-2" fill="none" stroke="#e67975" stroke-width="3" stroke-linecap="round" stroke-miterlimit="10" x1="24" y1="16" x2="24" y2="22" stroke-linejoin="round"/>
<rect x="2" y="30" fill="none" stroke="#666666" stroke-width="3" stroke-linecap="round" stroke-miterlimit="10" width="44" height="16" stroke-linejoin="round"/>
<polyline fill="none" stroke="#666666" stroke-width="3" stroke-linecap="round" stroke-miterlimit="10" points="40,30 40,22 8,22 
	8,30 " stroke-linejoin="round"/></g></svg>